%YAML 1.1
%TAG !u! tag:unity3d.com,2011:
--- !u!65 &5673474238618832918
BoxCollider:
  m_ObjectHideFlags: 0
  m_CorrespondingSourceObject: {fileID: 0}
  m_PrefabInstance: {fileID: 0}
  m_PrefabAsset: {fileID: 0}
  m_GameObject: {fileID: 2267883299038013265}
  m_Material: {fileID: 0}
  m_IsTrigger: 0
  m_Enabled: 1
  serializedVersion: 2
  m_Size: {x: 0.48888886, y: 5.0721407, z: 4.473995}
  m_Center: {x: -0.00000667572, y: -0.00000035762784, z: 0.98300254}
--- !u!1 &8907242646968940253
GameObject:
  m_ObjectHideFlags: 0
  m_CorrespondingSourceObject: {fileID: 0}
  m_PrefabInstance: {fileID: 0}
  m_PrefabAsset: {fileID: 0}
  serializedVersion: 6
  m_Component:
  - component: {fileID: 9039508746760594043}
  m_Layer: 8
  m_Name: TrapPrefab_05
  m_TagString: Untagged
  m_Icon: {fileID: 0}
  m_NavMeshLayer: 0
  m_StaticEditorFlags: 0
  m_IsActive: 1
--- !u!4 &9039508746760594043
Transform:
  m_ObjectHideFlags: 0
  m_CorrespondingSourceObject: {fileID: 0}
  m_PrefabInstance: {fileID: 0}
  m_PrefabAsset: {fileID: 0}
  m_GameObject: {fileID: 8907242646968940253}
  m_LocalRotation: {x: 0, y: 0, z: 0, w: 1}
  m_LocalPosition: {x: 0, y: 0, z: 0}
  m_LocalScale: {x: 1, y: 1, z: 1}
  m_Children:
  - {fileID: 1455493311912738283}
  m_Father: {fileID: 0}
  m_RootOrder: 0
  m_LocalEulerAnglesHint: {x: 0, y: 0, z: 0}
--- !u!1001 &1420967088628865536
PrefabInstance:
  m_ObjectHideFlags: 0
  serializedVersion: 2
  m_Modification:
    m_TransformParent: {fileID: 9039508746760594043}
    m_Modifications:
    - target: {fileID: -8679921383154817045, guid: e6f27ed50dd05c846827389198b7dbcd,
        type: 3}
      propertyPath: m_LocalPosition.x
      value: 0.24445
      objectReference: {fileID: 0}
    - target: {fileID: -8679921383154817045, guid: e6f27ed50dd05c846827389198b7dbcd,
        type: 3}
      propertyPath: m_LocalPosition.y
      value: -0.26397
      objectReference: {fileID: 0}
    - target: {fileID: -8679921383154817045, guid: e6f27ed50dd05c846827389198b7dbcd,
        type: 3}
      propertyPath: m_LocalPosition.z
      value: -2.254
      objectReference: {fileID: 0}
    - target: {fileID: -8679921383154817045, guid: e6f27ed50dd05c846827389198b7dbcd,
        type: 3}
      propertyPath: m_LocalRotation.x
      value: 0.00000008146034
      objectReference: {fileID: 0}
    - target: {fileID: -8679921383154817045, guid: e6f27ed50dd05c846827389198b7dbcd,
        type: 3}
      propertyPath: m_LocalRotation.y
      value: 0
      objectReference: {fileID: 0}
    - target: {fileID: -8679921383154817045, guid: e6f27ed50dd05c846827389198b7dbcd,
        type: 3}
      propertyPath: m_LocalRotation.z
      value: -0
      objectReference: {fileID: 0}
    - target: {fileID: -8679921383154817045, guid: e6f27ed50dd05c846827389198b7dbcd,
        type: 3}
      propertyPath: m_LocalRotation.w
      value: 1
      objectReference: {fileID: 0}
    - target: {fileID: -8679921383154817045, guid: e6f27ed50dd05c846827389198b7dbcd,
        type: 3}
      propertyPath: m_RootOrder
      value: 0
      objectReference: {fileID: 0}
    - target: {fileID: -8679921383154817045, guid: e6f27ed50dd05c846827389198b7dbcd,
        type: 3}
      propertyPath: m_LocalEulerAnglesHint.x
      value: 0
      objectReference: {fileID: 0}
    - target: {fileID: -8679921383154817045, guid: e6f27ed50dd05c846827389198b7dbcd,
        type: 3}
      propertyPath: m_LocalEulerAnglesHint.y
      value: 0
      objectReference: {fileID: 0}
    - target: {fileID: -8679921383154817045, guid: e6f27ed50dd05c846827389198b7dbcd,
        type: 3}
      propertyPath: m_LocalEulerAnglesHint.z
      value: 0
      objectReference: {fileID: 0}
    - target: {fileID: -7511558181221131132, guid: e6f27ed50dd05c846827389198b7dbcd,
        type: 3}
      propertyPath: m_Materials.Array.data[0]
      value: 
      objectReference: {fileID: 2100000, guid: da2d5b497d99145499a0c6a6d39e9871, type: 2}
    - target: {fileID: -7511558181221131132, guid: e6f27ed50dd05c846827389198b7dbcd,
        type: 3}
      propertyPath: m_Materials.Array.data[1]
      value: 
      objectReference: {fileID: 2100000, guid: 026cafcd230567a41b24d77bb0189064, type: 2}
    - target: {fileID: 919132149155446097, guid: e6f27ed50dd05c846827389198b7dbcd,
        type: 3}
      propertyPath: m_Name
      value: Large Left
      objectReference: {fileID: 0}
    - target: {fileID: 919132149155446097, guid: e6f27ed50dd05c846827389198b7dbcd,
        type: 3}
      propertyPath: m_TagString
      value: Finish
      objectReference: {fileID: 0}
    m_RemovedComponents: []
  m_SourcePrefab: {fileID: 100100000, guid: e6f27ed50dd05c846827389198b7dbcd, type: 3}
--- !u!1 &2267883299038013265 stripped
GameObject:
  m_CorrespondingSourceObject: {fileID: 919132149155446097, guid: e6f27ed50dd05c846827389198b7dbcd,
    type: 3}
  m_PrefabInstance: {fileID: 1420967088628865536}
  m_PrefabAsset: {fileID: 0}
--- !u!4 &1455493311912738283 stripped
Transform:
  m_CorrespondingSourceObject: {fileID: -8679921383154817045, guid: e6f27ed50dd05c846827389198b7dbcd,
    type: 3}
  m_PrefabInstance: {fileID: 1420967088628865536}
  m_PrefabAsset: {fileID: 0}
